{
    "workbench.colorTheme": "Default Dark Modern",
    "security.workspace.trust.untrustedFiles": "open",
    "editor.renderWhitespace": "all",
    "editor.detectIndentation": false,
    "editor.formatOnPaste": true,
    "editor.tabSize": 4,
    "editor.insertSpaces": true,
    "files.autoSave": "afterDelay",
    "files.trimTrailingWhitespace": true,
    "workbench.editor.wrapTabs": true,
    "editor.suggestSelection": "first",
    "vsintellicode.modify.editor.suggestSelection": "automaticallyOverrodeDefaultValue",
    "window.zoomLevel": -1,
    // "python.formatting.provider": "black",
    // "xml.server.vmargs": "-Xmx512M",
    // "xml.symbols.maxItemsComputed": 500000,
    "launch": {
        "configurations": []
    },
    "[python]": {
        "editor.formatOnType": true
    }
}